%YAML 1.1
%TAG !u! tag:unity3d.com,2011:
--- !u!1 &3854868414607769948
GameObject:
  m_ObjectHideFlags: 0
  m_CorrespondingSourceObject: {fileID: 0}
  m_PrefabInstance: {fileID: 0}
  m_PrefabAsset: {fileID: 0}
  serializedVersion: 6
  m_Component:
  - component: {fileID: 943559341333110487}
  - component: {fileID: 642260109410467658}
  m_Layer: 31
  m_Name: Terrain
  m_TagString: Untagged
  m_Icon: {fileID: 0}
  m_NavMeshLayer: 0
  m_StaticEditorFlags: 0
  m_IsActive: 1
--- !u!4 &943559341333110487
Transform:
  m_ObjectHideFlags: 0
  m_CorrespondingSourceObject: {fileID: 0}
  m_PrefabInstance: {fileID: 0}
  m_PrefabAsset: {fileID: 0}
  m_GameObject: {fileID: 3854868414607769948}
  m_LocalRotation: {x: 0, y: 0, z: 0, w: 1}
  m_LocalPosition: {x: 0, y: 0, z: 0}
  m_LocalScale: {x: 1, y: 1, z: 1}
  m_Children:
  - {fileID: 3335730876486640931}
  m_Father: {fileID: 0}
  m_RootOrder: 0
  m_LocalEulerAnglesHint: {x: 0, y: 0, z: 0}
--- !u!156049354 &642260109410467658
Grid:
  m_ObjectHideFlags: 0
  m_CorrespondingSourceObject: {fileID: 0}
  m_PrefabInstance: {fileID: 0}
  m_PrefabAsset: {fileID: 0}
  m_GameObject: {fileID: 3854868414607769948}
  m_Enabled: 1
  m_CellSize: {x: 1, y: 1, z: 0}
  m_CellGap: {x: 0, y: 0, z: 0}
  m_CellLayout: 0
  m_CellSwizzle: 0
--- !u!1 &7355805196137837609
GameObject:
  m_ObjectHideFlags: 0
  m_CorrespondingSourceObject: {fileID: 0}
  m_PrefabInstance: {fileID: 0}
  m_PrefabAsset: {fileID: 0}
  serializedVersion: 6
  m_Component:
  - component: {fileID: 3335730876486640931}
  - component: {fileID: 5304325365583589175}
  - component: {fileID: 9055565341920544472}
  m_Layer: 0
  m_Name: Layer1
  m_TagString: Untagged
  m_Icon: {fileID: 0}
  m_NavMeshLayer: 0
  m_StaticEditorFlags: 0
  m_IsActive: 1
--- !u!4 &3335730876486640931
Transform:
  m_ObjectHideFlags: 0
  m_CorrespondingSourceObject: {fileID: 0}
  m_PrefabInstance: {fileID: 0}
  m_PrefabAsset: {fileID: 0}
  m_GameObject: {fileID: 7355805196137837609}
  m_LocalRotation: {x: -0, y: -0, z: -0, w: 1}
  m_LocalPosition: {x: 0, y: 0, z: 0}
  m_LocalScale: {x: 1, y: 1, z: 1}
  m_Children: []
  m_Father: {fileID: 943559341333110487}
  m_RootOrder: 0
  m_LocalEulerAnglesHint: {x: 0, y: 0, z: 0}
--- !u!1839735485 &5304325365583589175
Tilemap:
  m_ObjectHideFlags: 0
  m_CorrespondingSourceObject: {fileID: 0}
  m_PrefabInstance: {fileID: 0}
  m_PrefabAsset: {fileID: 0}
  m_GameObject: {fileID: 7355805196137837609}
  m_Enabled: 1
  m_Tiles:
  - first: {x: -2, y: -9, z: 0}
    second:
      serializedVersion: 2
      m_TileIndex: 72
      m_TileSpriteIndex: 72
      m_TileMatrixIndex: 0
      m_TileColorIndex: 0
      m_TileObjectToInstantiateIndex: 65535
      dummyAlignment: 0
      m_AllTileFlags: 1073741825
  - first: {x: -1, y: -9, z: 0}
    second:
      serializedVersion: 2
      m_TileIndex: 73
      m_TileSpriteIndex: 73
      m_TileMatrixIndex: 0
      m_TileColorIndex: 0
      m_TileObjectToInstantiateIndex: 65535
      dummyAlignment: 0
      m_AllTileFlags: 1073741825
  - first: {x: 0, y: -9, z: 0}
    second:
      serializedVersion: 2
      m_TileIndex: 74
      m_TileSpriteIndex: 74
      m_TileMatrixIndex: 0
      m_TileColorIndex: 0
      m_TileObjectToInstantiateIndex: 65535
      dummyAlignment: 0
      m_AllTileFlags: 1073741825
  - first: {x: 1, y: -9, z: 0}
    second:
      serializedVersion: 2
      m_TileIndex: 75
      m_TileSpriteIndex: 75
      m_TileMatrixIndex: 0
      m_TileColorIndex: 0
      m_TileObjectToInstantiateIndex: 65535
      dummyAlignment: 0
      m_AllTileFlags: 1073741825
  - first: {x: 2, y: -9, z: 0}
    second:
      serializedVersion: 2
      m_TileIndex: 76
      m_TileSpriteIndex: 76
      m_TileMatrixIndex: 0
      m_TileColorIndex: 0
      m_TileObjectToInstantiateIndex: 65535
      dummyAlignment: 0
      m_AllTileFlags: 1073741825
  - first: {x: -2, y: -8, z: 0}
    second:
      serializedVersion: 2
      m_TileIndex: 63
      m_TileSpriteIndex: 63
      m_TileMatrixIndex: 0
      m_TileColorIndex: 0
      m_TileObjectToInstantiateIndex: 65535
      dummyAlignment: 0
      m_AllTileFlags: 1073741825
  - first: {x: -1, y: -8, z: 0}
    second:
      serializedVersion: 2
      m_TileIndex: 64
      m_TileSpriteIndex: 64
      m_TileMatrixIndex: 0
      m_TileColorIndex: 0
      m_TileObjectToInstantiateIndex: 65535
      dummyAlignment: 0
      m_AllTileFlags: 1073741825
  - first: {x: 0, y: -8, z: 0}
    second:
      serializedVersion: 2
      m_TileIndex: 65
      m_TileSpriteIndex: 65
      m_TileMatrixIndex: 0
      m_TileColorIndex: 0
      m_TileObjectToInstantiateIndex: 65535
      dummyAlignment: 0
      m_AllTileFlags: 1073741825
  - first: {x: 1, y: -8, z: 0}
    second:
      serializedVersion: 2
      m_TileIndex: 66
      m_TileSpriteIndex: 66
      m_TileMatrixIndex: 0
      m_TileColorIndex: 0
      m_TileObjectToInstantiateIndex: 65535
      dummyAlignment: 0
      m_AllTileFlags: 1073741825
  - first: {x: 2, y: -8, z: 0}
    second:
      serializedVersion: 2
      m_TileIndex: 67
      m_TileSpriteIndex: 67
      m_TileMatrixIndex: 0
      m_TileColorIndex: 0
      m_TileObjectToInstantiateIndex: 65535
      dummyAlignment: 0
      m_AllTileFlags: 1073741825
  - first: {x: 3, y: -8, z: 0}
    second:
      serializedVersion: 2
      m_TileIndex: 68
      m_TileSpriteIndex: 68
      m_TileMatrixIndex: 0
      m_TileColorIndex: 0
      m_TileObjectToInstantiateIndex: 65535
      dummyAlignment: 0
      m_AllTileFlags: 1073741825
  - first: {x: 4, y: -8, z: 0}
    second:
      serializedVersion: 2
      m_TileIndex: 69
      m_TileSpriteIndex: 69
      m_TileMatrixIndex: 0
      m_TileColorIndex: 0
      m_TileObjectToInstantiateIndex: 65535
      dummyAlignment: 0
      m_AllTileFlags: 1073741825
  - first: {x: 5, y: -8, z: 0}
    second:
      serializedVersion: 2
      m_TileIndex: 70
      m_TileSpriteIndex: 70
      m_TileMatrixIndex: 0
      m_TileColorIndex: 0
      m_TileObjectToInstantiateIndex: 65535
      dummyAlignment: 0
      m_AllTileFlags: 1073741825
  - first: {x: 6, y: -8, z: 0}
    second:
      serializedVersion: 2
      m_TileIndex: 71
      m_TileSpriteIndex: 71
      m_TileMatrixIndex: 0
      m_TileColorIndex: 0
      m_TileObjectToInstantiateIndex: 65535
      dummyAlignment: 0
      m_AllTileFlags: 1073741825
  - first: {x: -2, y: -7, z: 0}
    second:
      serializedVersion: 2
      m_TileIndex: 54
      m_TileSpriteIndex: 54
      m_TileMatrixIndex: 0
      m_TileColorIndex: 0
      m_TileObjectToInstantiateIndex: 65535
      dummyAlignment: 0
      m_AllTileFlags: 1073741825
  - first: {x: -1, y: -7, z: 0}
    second:
      serializedVersion: 2
      m_TileIndex: 55
      m_TileSpriteIndex: 55
      m_TileMatrixIndex: 0
      m_TileColorIndex: 0
      m_TileObjectToInstantiateIndex: 65535
      dummyAlignment: 0
      m_AllTileFlags: 1073741825
  - first: {x: 0, y: -7, z: 0}
    second:
      serializedVersion: 2
      m_TileIndex: 56
      m_TileSpriteIndex: 56
      m_TileMatrixIndex: 0
      m_TileColorIndex: 0
      m_TileObjectToInstantiateIndex: 65535
      dummyAlignment: 0
      m_AllTileFlags: 1073741825
  - first: {x: 1, y: -7, z: 0}
    second:
      serializedVersion: 2
      m_TileIndex: 57
      m_TileSpriteIndex: 57
      m_TileMatrixIndex: 0
      m_TileColorIndex: 0
      m_TileObjectToInstantiateIndex: 65535
      dummyAlignment: 0
      m_AllTileFlags: 1073741825
  - first: {x: 2, y: -7, z: 0}
    second:
      serializedVersion: 2
      m_TileIndex: 58
      m_TileSpriteIndex: 58
      m_TileMatrixIndex: 0
      m_TileColorIndex: 0
      m_TileObjectToInstantiateIndex: 65535
      dummyAlignment: 0
      m_AllTileFlags: 1073741825
  - first: {x: 3, y: -7, z: 0}
    second:
      serializedVersion: 2
      m_TileIndex: 59
      m_TileSpriteIndex: 59
      m_TileMatrixIndex: 0
      m_TileColorIndex: 0
      m_TileObjectToInstantiateIndex: 65535
      dummyAlignment: 0
      m_AllTileFlags: 1073741825
  - first: {x: 4, y: -7, z: 0}
    second:
      serializedVersion: 2
      m_TileIndex: 60
      m_TileSpriteIndex: 60
      m_TileMatrixIndex: 0
      m_TileColorIndex: 0
      m_TileObjectToInstantiateIndex: 65535
      dummyAlignment: 0
      m_AllTileFlags: 1073741825
  - first: {x: 5, y: -7, z: 0}
    second:
      serializedVersion: 2
      m_TileIndex: 61
      m_TileSpriteIndex: 61
      m_TileMatrixIndex: 0
      m_TileColorIndex: 0
      m_TileObjectToInstantiateIndex: 65535
      dummyAlignment: 0
      m_AllTileFlags: 1073741825
  - first: {x: 6, y: -7, z: 0}
    second:
      serializedVersion: 2
      m_TileIndex: 62
      m_TileSpriteIndex: 62
      m_TileMatrixIndex: 0
      m_TileColorIndex: 0
      m_TileObjectToInstantiateIndex: 65535
      dummyAlignment: 0
      m_AllTileFlags: 1073741825
  - first: {x: -2, y: -6, z: 0}
    second:
      serializedVersion: 2
      m_TileIndex: 45
      m_TileSpriteIndex: 45
      m_TileMatrixIndex: 0
      m_TileColorIndex: 0
      m_TileObjectToInstantiateIndex: 65535
      dummyAlignment: 0
      m_AllTileFlags: 1073741825
  - first: {x: -1, y: -6, z: 0}
    second:
      serializedVersion: 2
      m_TileIndex: 46
      m_TileSpriteIndex: 46
      m_TileMatrixIndex: 0
      m_TileColorIndex: 0
      m_TileObjectToInstantiateIndex: 65535
      dummyAlignment: 0
      m_AllTileFlags: 1073741825
  - first: {x: 0, y: -6, z: 0}
    second:
      serializedVersion: 2
      m_TileIndex: 47
      m_TileSpriteIndex: 47
      m_TileMatrixIndex: 0
      m_TileColorIndex: 0
      m_TileObjectToInstantiateIndex: 65535
      dummyAlignment: 0
      m_AllTileFlags: 1073741825
  - first: {x: 1, y: -6, z: 0}
    second:
      serializedVersion: 2
      m_TileIndex: 48
      m_TileSpriteIndex: 48
      m_TileMatrixIndex: 0
      m_TileColorIndex: 0
      m_TileObjectToInstantiateIndex: 65535
      dummyAlignment: 0
      m_AllTileFlags: 1073741825
  - first: {x: 2, y: -6, z: 0}
    second:
      serializedVersion: 2
      m_TileIndex: 49
      m_TileSpriteIndex: 49
      m_TileMatrixIndex: 0
      m_TileColorIndex: 0
      m_TileObjectToInstantiateIndex: 65535
      dummyAlignment: 0
      m_AllTileFlags: 1073741825
  - first: {x: 3, y: -6, z: 0}
    second:
      serializedVersion: 2
      m_TileIndex: 50
      m_TileSpriteIndex: 50
      m_TileMatrixIndex: 0
      m_TileColorIndex: 0
      m_TileObjectToInstantiateIndex: 65535
      dummyAlignment: 0
      m_AllTileFlags: 1073741825
  - first: {x: 4, y: -6, z: 0}
    second:
      serializedVersion: 2
      m_TileIndex: 51
      m_TileSpriteIndex: 51
      m_TileMatrixIndex: 0
      m_TileColorIndex: 0
      m_TileObjectToInstantiateIndex: 65535
      dummyAlignment: 0
      m_AllTileFlags: 1073741825
  - first: {x: 5, y: -6, z: 0}
    second:
      serializedVersion: 2
      m_TileIndex: 52
      m_TileSpriteIndex: 52
      m_TileMatrixIndex: 0
      m_TileColorIndex: 0
      m_TileObjectToInstantiateIndex: 65535
      dummyAlignment: 0
      m_AllTileFlags: 1073741825
  - first: {x: 6, y: -6, z: 0}
    second:
      serializedVersion: 2
      m_TileIndex: 53
      m_TileSpriteIndex: 53
      m_TileMatrixIndex: 0
      m_TileColorIndex: 0
      m_TileObjectToInstantiateIndex: 65535
      dummyAlignment: 0
      m_AllTileFlags: 1073741825
  - first: {x: -2, y: -5, z: 0}
    second:
      serializedVersion: 2
      m_TileIndex: 36
      m_TileSpriteIndex: 36
      m_TileMatrixIndex: 0
      m_TileColorIndex: 0
      m_TileObjectToInstantiateIndex: 65535
      dummyAlignment: 0
      m_AllTileFlags: 1073741825
  - first: {x: -1, y: -5, z: 0}
    second:
      serializedVersion: 2
      m_TileIndex: 37
      m_TileSpriteIndex: 37
      m_TileMatrixIndex: 0
      m_TileColorIndex: 0
      m_TileObjectToInstantiateIndex: 65535
      dummyAlignment: 0
      m_AllTileFlags: 1073741825
  - first: {x: 0, y: -5, z: 0}
    second:
      serializedVersion: 2
      m_TileIndex: 38
      m_TileSpriteIndex: 38
      m_TileMatrixIndex: 0
      m_TileColorIndex: 0
      m_TileObjectToInstantiateIndex: 65535
      dummyAlignment: 0
      m_AllTileFlags: 1073741825
  - first: {x: 1, y: -5, z: 0}
    second:
      serializedVersion: 2
      m_TileIndex: 39
      m_TileSpriteIndex: 39
      m_TileMatrixIndex: 0
      m_TileColorIndex: 0
      m_TileObjectToInstantiateIndex: 65535
      dummyAlignment: 0
      m_AllTileFlags: 1073741825
  - first: {x: 2, y: -5, z: 0}
    second:
      serializedVersion: 2
      m_TileIndex: 40
      m_TileSpriteIndex: 40
      m_TileMatrixIndex: 0
      m_TileColorIndex: 0
      m_TileObjectToInstantiateIndex: 65535
      dummyAlignment: 0
      m_AllTileFlags: 1073741825
  - first: {x: 3, y: -5, z: 0}
    second:
      serializedVersion: 2
      m_TileIndex: 41
      m_TileSpriteIndex: 41
      m_TileMatrixIndex: 0
      m_TileColorIndex: 0
      m_TileObjectToInstantiateIndex: 65535
      dummyAlignment: 0
      m_AllTileFlags: 1073741825
  - first: {x: 4, y: -5, z: 0}
    second:
      serializedVersion: 2
      m_TileIndex: 42
      m_TileSpriteIndex: 42
      m_TileMatrixIndex: 0
      m_TileColorIndex: 0
      m_TileObjectToInstantiateIndex: 65535
      dummyAlignment: 0
      m_AllTileFlags: 1073741825
  - first: {x: 5, y: -5, z: 0}
    second:
      serializedVersion: 2
      m_TileIndex: 43
      m_TileSpriteIndex: 43
      m_TileMatrixIndex: 0
      m_TileColorIndex: 0
      m_TileObjectToInstantiateIndex: 65535
      dummyAlignment: 0
      m_AllTileFlags: 1073741825
  - first: {x: 6, y: -5, z: 0}
    second:
      serializedVersion: 2
      m_TileIndex: 44
      m_TileSpriteIndex: 44
      m_TileMatrixIndex: 0
      m_TileColorIndex: 0
      m_TileObjectToInstantiateIndex: 65535
      dummyAlignment: 0
      m_AllTileFlags: 1073741825
  - first: {x: -2, y: -4, z: 0}
    second:
      serializedVersion: 2
      m_TileIndex: 27
      m_TileSpriteIndex: 27
      m_TileMatrixIndex: 0
      m_TileColorIndex: 0
      m_TileObjectToInstantiateIndex: 65535
      dummyAlignment: 0
      m_AllTileFlags: 1073741825
  - first: {x: -1, y: -4, z: 0}
    second:
      serializedVersion: 2
      m_TileIndex: 28
      m_TileSpriteIndex: 28
      m_TileMatrixIndex: 0
      m_TileColorIndex: 0
      m_TileObjectToInstantiateIndex: 65535
      dummyAlignment: 0
      m_AllTileFlags: 1073741825
  - first: {x: 0, y: -4, z: 0}
    second:
      serializedVersion: 2
      m_TileIndex: 29
      m_TileSpriteIndex: 29
      m_TileMatrixIndex: 0
      m_TileColorIndex: 0
      m_TileObjectToInstantiateIndex: 65535
      dummyAlignment: 0
      m_AllTileFlags: 1073741825
  - first: {x: 1, y: -4, z: 0}
    second:
      serializedVersion: 2
      m_TileIndex: 30
      m_TileSpriteIndex: 30
      m_TileMatrixIndex: 0
      m_TileColorIndex: 0
      m_TileObjectToInstantiateIndex: 65535
      dummyAlignment: 0
      m_AllTileFlags: 1073741825
  - first: {x: 2, y: -4, z: 0}
    second:
      serializedVersion: 2
      m_TileIndex: 31
      m_TileSpriteIndex: 31
      m_TileMatrixIndex: 0
      m_TileColorIndex: 0
      m_TileObjectToInstantiateIndex: 65535
      dummyAlignment: 0
      m_AllTileFlags: 1073741825
  - first: {x: 3, y: -4, z: 0}
    second:
      serializedVersion: 2
      m_TileIndex: 32
      m_TileSpriteIndex: 32
      m_TileMatrixIndex: 0
      m_TileColorIndex: 0
      m_TileObjectToInstantiateIndex: 65535
      dummyAlignment: 0
      m_AllTileFlags: 1073741825
  - first: {x: 4, y: -4, z: 0}
    second:
      serializedVersion: 2
      m_TileIndex: 33
      m_TileSpriteIndex: 33
      m_TileMatrixIndex: 0
      m_TileColorIndex: 0
      m_TileObjectToInstantiateIndex: 65535
      dummyAlignment: 0
      m_AllTileFlags: 1073741825
  - first: {x: 5, y: -4, z: 0}
    second:
      serializedVersion: 2
      m_TileIndex: 34
      m_TileSpriteIndex: 34
      m_TileMatrixIndex: 0
      m_TileColorIndex: 0
      m_TileObjectToInstantiateIndex: 65535
      dummyAlignment: 0
      m_AllTileFlags: 1073741825
  - first: {x: 6, y: -4, z: 0}
    second:
      serializedVersion: 2
      m_TileIndex: 35
      m_TileSpriteIndex: 35
      m_TileMatrixIndex: 0
      m_TileColorIndex: 0
      m_TileObjectToInstantiateIndex: 65535
      dummyAlignment: 0
      m_AllTileFlags: 1073741825
  - first: {x: -2, y: -3, z: 0}
    second:
      serializedVersion: 2
      m_TileIndex: 18
      m_TileSpriteIndex: 18
      m_TileMatrixIndex: 0
      m_TileColorIndex: 0
      m_TileObjectToInstantiateIndex: 65535
      dummyAlignment: 0
      m_AllTileFlags: 1073741825
  - first: {x: -1, y: -3, z: 0}
    second:
      serializedVersion: 2
      m_TileIndex: 19
      m_TileSpriteIndex: 19
      m_TileMatrixIndex: 0
      m_TileColorIndex: 0
      m_TileObjectToInstantiateIndex: 65535
      dummyAlignment: 0
      m_AllTileFlags: 1073741825
  - first: {x: 0, y: -3, z: 0}
    second:
      serializedVersion: 2
      m_TileIndex: 20
      m_TileSpriteIndex: 20
      m_TileMatrixIndex: 0
      m_TileColorIndex: 0
      m_TileObjectToInstantiateIndex: 65535
      dummyAlignment: 0
      m_AllTileFlags: 1073741825
  - first: {x: 1, y: -3, z: 0}
    second:
      serializedVersion: 2
      m_TileIndex: 21
      m_TileSpriteIndex: 21
      m_TileMatrixIndex: 0
      m_TileColorIndex: 0
      m_TileObjectToInstantiateIndex: 65535
      dummyAlignment: 0
      m_AllTileFlags: 1073741825
  - first: {x: 2, y: -3, z: 0}
    second:
      serializedVersion: 2
      m_TileIndex: 22
      m_TileSpriteIndex: 22
      m_TileMatrixIndex: 0
      m_TileColorIndex: 0
      m_TileObjectToInstantiateIndex: 65535
      dummyAlignment: 0
      m_AllTileFlags: 1073741825
  - first: {x: 3, y: -3, z: 0}
    second:
      serializedVersion: 2
      m_TileIndex: 23
      m_TileSpriteIndex: 23
      m_TileMatrixIndex: 0
      m_TileColorIndex: 0
      m_TileObjectToInstantiateIndex: 65535
      dummyAlignment: 0
      m_AllTileFlags: 1073741825
  - first: {x: 4, y: -3, z: 0}
    second:
      serializedVersion: 2
      m_TileIndex: 24
      m_TileSpriteIndex: 24
      m_TileMatrixIndex: 0
      m_TileColorIndex: 0
      m_TileObjectToInstantiateIndex: 65535
      dummyAlignment: 0
      m_AllTileFlags: 1073741825
  - first: {x: 5, y: -3, z: 0}
    second:
      serializedVersion: 2
      m_TileIndex: 25
      m_TileSpriteIndex: 25
      m_TileMatrixIndex: 0
      m_TileColorIndex: 0
      m_TileObjectToInstantiateIndex: 65535
      dummyAlignment: 0
      m_AllTileFlags: 1073741825
  - first: {x: 6, y: -3, z: 0}
    second:
      serializedVersion: 2
      m_TileIndex: 26
      m_TileSpriteIndex: 26
      m_TileMatrixIndex: 0
      m_TileColorIndex: 0
      m_TileObjectToInstantiateIndex: 65535
      dummyAlignment: 0
      m_AllTileFlags: 1073741825
  - first: {x: -2, y: -2, z: 0}
    second:
      serializedVersion: 2
      m_TileIndex: 9
      m_TileSpriteIndex: 9
      m_TileMatrixIndex: 0
      m_TileColorIndex: 0
      m_TileObjectToInstantiateIndex: 65535
      dummyAlignment: 0
      m_AllTileFlags: 1073741825
  - first: {x: -1, y: -2, z: 0}
    second:
      serializedVersion: 2
      m_TileIndex: 10
      m_TileSpriteIndex: 10
      m_TileMatrixIndex: 0
      m_TileColorIndex: 0
      m_TileObjectToInstantiateIndex: 65535
      dummyAlignment: 0
      m_AllTileFlags: 1073741825
  - first: {x: 0, y: -2, z: 0}
    second:
      serializedVersion: 2
      m_TileIndex: 11
      m_TileSpriteIndex: 11
      m_TileMatrixIndex: 0
      m_TileColorIndex: 0
      m_TileObjectToInstantiateIndex: 65535
      dummyAlignment: 0
      m_AllTileFlags: 1073741825
  - first: {x: 1, y: -2, z: 0}
    second:
      serializedVersion: 2
      m_TileIndex: 12
      m_TileSpriteIndex: 12
      m_TileMatrixIndex: 0
      m_TileColorIndex: 0
      m_TileObjectToInstantiateIndex: 65535
      dummyAlignment: 0
      m_AllTileFlags: 1073741825
  - first: {x: 2, y: -2, z: 0}
    second:
      serializedVersion: 2
      m_TileIndex: 13
      m_TileSpriteIndex: 13
      m_TileMatrixIndex: 0
      m_TileColorIndex: 0
      m_TileObjectToInstantiateIndex: 65535
      dummyAlignment: 0
      m_AllTileFlags: 1073741825
  - first: {x: 3, y: -2, z: 0}
    second:
      serializedVersion: 2
      m_TileIndex: 14
      m_TileSpriteIndex: 14
      m_TileMatrixIndex: 0
      m_TileColorIndex: 0
      m_TileObjectToInstantiateIndex: 65535
      dummyAlignment: 0
      m_AllTileFlags: 1073741825
  - first: {x: 4, y: -2, z: 0}
    second:
      serializedVersion: 2
      m_TileIndex: 15
      m_TileSpriteIndex: 15
      m_TileMatrixIndex: 0
      m_TileColorIndex: 0
      m_TileObjectToInstantiateIndex: 65535
      dummyAlignment: 0
      m_AllTileFlags: 1073741825
  - first: {x: 5, y: -2, z: 0}
    second:
      serializedVersion: 2
      m_TileIndex: 16
      m_TileSpriteIndex: 16
      m_TileMatrixIndex: 0
      m_TileColorIndex: 0
      m_TileObjectToInstantiateIndex: 65535
      dummyAlignment: 0
      m_AllTileFlags: 1073741825
  - first: {x: 6, y: -2, z: 0}
    second:
      serializedVersion: 2
      m_TileIndex: 17
      m_TileSpriteIndex: 17
      m_TileMatrixIndex: 0
      m_TileColorIndex: 0
      m_TileObjectToInstantiateIndex: 65535
      dummyAlignment: 0
      m_AllTileFlags: 1073741825
  - first: {x: -2, y: -1, z: 0}
    second:
      serializedVersion: 2
      m_TileIndex: 0
      m_TileSpriteIndex: 0
      m_TileMatrixIndex: 0
      m_TileColorIndex: 0
      m_TileObjectToInstantiateIndex: 65535
      dummyAlignment: 0
      m_AllTileFlags: 1073741825
  - first: {x: -1, y: -1, z: 0}
    second:
      serializedVersion: 2
      m_TileIndex: 1
      m_TileSpriteIndex: 1
      m_TileMatrixIndex: 0
      m_TileColorIndex: 0
      m_TileObjectToInstantiateIndex: 65535
      dummyAlignment: 0
      m_AllTileFlags: 1073741825
  - first: {x: 0, y: -1, z: 0}
    second:
      serializedVersion: 2
      m_TileIndex: 2
      m_TileSpriteIndex: 2
      m_TileMatrixIndex: 0
      m_TileColorIndex: 0
      m_TileObjectToInstantiateIndex: 65535
      dummyAlignment: 0
      m_AllTileFlags: 1073741825
  - first: {x: 1, y: -1, z: 0}
    second:
      serializedVersion: 2
      m_TileIndex: 3
      m_TileSpriteIndex: 3
      m_TileMatrixIndex: 0
      m_TileColorIndex: 0
      m_TileObjectToInstantiateIndex: 65535
      dummyAlignment: 0
      m_AllTileFlags: 1073741825
  - first: {x: 2, y: -1, z: 0}
    second:
      serializedVersion: 2
      m_TileIndex: 4
      m_TileSpriteIndex: 4
      m_TileMatrixIndex: 0
      m_TileColorIndex: 0
      m_TileObjectToInstantiateIndex: 65535
      dummyAlignment: 0
      m_AllTileFlags: 1073741825
  - first: {x: 3, y: -1, z: 0}
    second:
      serializedVersion: 2
      m_TileIndex: 5
      m_TileSpriteIndex: 5
      m_TileMatrixIndex: 0
      m_TileColorIndex: 0
      m_TileObjectToInstantiateIndex: 65535
      dummyAlignment: 0
      m_AllTileFlags: 1073741825
  - first: {x: 4, y: -1, z: 0}
    second:
      serializedVersion: 2
      m_TileIndex: 6
      m_TileSpriteIndex: 6
      m_TileMatrixIndex: 0
      m_TileColorIndex: 0
      m_TileObjectToInstantiateIndex: 65535
      dummyAlignment: 0
      m_AllTileFlags: 1073741825
  - first: {x: 5, y: -1, z: 0}
    second:
      serializedVersion: 2
      m_TileIndex: 7
      m_TileSpriteIndex: 7
      m_TileMatrixIndex: 0
      m_TileColorIndex: 0
      m_TileObjectToInstantiateIndex: 65535
      dummyAlignment: 0
      m_AllTileFlags: 1073741825
  - first: {x: 6, y: -1, z: 0}
    second:
      serializedVersion: 2
      m_TileIndex: 8
      m_TileSpriteIndex: 8
      m_TileMatrixIndex: 0
      m_TileColorIndex: 0
      m_TileObjectToInstantiateIndex: 65535
      dummyAlignment: 0
      m_AllTileFlags: 1073741825
  m_AnimatedTiles: {}
  m_TileAssetArray:
  - m_RefCount: 1
    m_Data: {fileID: 11400000, guid: 2e49052db438eaa44a63dfbaed0b0345, type: 2}
  - m_RefCount: 1
    m_Data: {fileID: 11400000, guid: f66cfb5209887c9448e4c98bbf27cdf4, type: 2}
  - m_RefCount: 1
    m_Data: {fileID: 11400000, guid: 7e7ec951386267940acde73a6c6612a4, type: 2}
  - m_RefCount: 1
    m_Data: {fileID: 11400000, guid: 12e5db89f2f8d244e905779b50654210, type: 2}
  - m_RefCount: 1
    m_Data: {fileID: 11400000, guid: 5b551e8754c1ff54f9e56a6a231befbe, type: 2}
  - m_RefCount: 1
    m_Data: {fileID: 11400000, guid: 59b2c43cea05e9045aa65dd027fdc05b, type: 2}
  - m_RefCount: 1
    m_Data: {fileID: 11400000, guid: 14a3c0a0ab4e74b47885fe0065cb7b6a, type: 2}
  - m_RefCount: 1
    m_Data: {fileID: 11400000, guid: 20ced86008dc64c4dbd7c82c87c7a3a7, type: 2}
  - m_RefCount: 1
    m_Data: {fileID: 11400000, guid: e7f05088d16a61f458adfbff9875fb09, type: 2}
  - m_RefCount: 1
    m_Data: {fileID: 11400000, guid: 3a1662a43ce899446a509be476ea6ef3, type: 2}
  - m_RefCount: 1
    m_Data: {fileID: 11400000, guid: dbc8b2545c9165e4eba83eb41166d168, type: 2}
  - m_RefCount: 1
    m_Data: {fileID: 11400000, guid: dd34d393582d38a409afdc533b3a8b51, type: 2}
  - m_RefCount: 1
    m_Data: {fileID: 11400000, guid: effd7e114ac2be44180e9fe145e66c3d, type: 2}
  - m_RefCount: 1
    m_Data: {fileID: 11400000, guid: dab65ed3737ae4245b267279d5fb6ff4, type: 2}
  - m_RefCount: 1
    m_Data: {fileID: 11400000, guid: fdc0f133f2c345249b6a4e4779b97c9d, type: 2}
  - m_RefCount: 1
    m_Data: {fileID: 11400000, guid: f1b5283858d1df84cb810bbe6cf69668, type: 2}
  - m_RefCount: 1
    m_Data: {fileID: 11400000, guid: 32215e07022ad2d49b170f1f187fb0a1, type: 2}
  - m_RefCount: 1
    m_Data: {fileID: 11400000, guid: 7f77e0cbac73f7a43a3710fd7be9ed7e, type: 2}
  - m_RefCount: 1
    m_Data: {fileID: 11400000, guid: c737ee463c9025743a8cb1f4792ca933, type: 2}
  - m_RefCount: 1
    m_Data: {fileID: 11400000, guid: 9c76c7f874fa3744389f20503e55db82, type: 2}
  - m_RefCount: 1
    m_Data: {fileID: 11400000, guid: 2cd4ae0c815cc7b40b606ec4eeea7ada, type: 2}
  - m_RefCount: 1
    m_Data: {fileID: 11400000, guid: fbc7dea811d740f4a8cb421dcc923968, type: 2}
  - m_RefCount: 1
    m_Data: {fileID: 11400000, guid: 73bead1e4063fac458083109d3d2c546, type: 2}
  - m_RefCount: 1
    m_Data: {fileID: 11400000, guid: d61cadac65b0f5249b8df38e39d0b2dd, type: 2}
  - m_RefCount: 1
    m_Data: {fileID: 11400000, guid: ab30988f4d360b14781829c203a7eb06, type: 2}
  - m_RefCount: 1
    m_Data: {fileID: 11400000, guid: 7b170ec83c4065f4c997a822f259cc0b, type: 2}
  - m_RefCount: 1
    m_Data: {fileID: 11400000, guid: 9322eea1974a7f74d9154d3f7bb18a94, type: 2}
  - m_RefCount: 1
    m_Data: {fileID: 11400000, guid: a37067cdf480ac142ab76257c7f1f946, type: 2}
  - m_RefCount: 1
    m_Data: {fileID: 11400000, guid: e1c91d2abd1039b4aa709e58a8892993, type: 2}
  - m_RefCount: 1
    m_Data: {fileID: 11400000, guid: cde5674f845db034290a83578b113a60, type: 2}
  - m_RefCount: 1
    m_Data: {fileID: 11400000, guid: 26da1eb5646ed1a48a1cf92b11a7543c, type: 2}
  - m_RefCount: 1
    m_Data: {fileID: 11400000, guid: d44de03134d0b6e4ba092db593a5dd82, type: 2}
  - m_RefCount: 1
    m_Data: {fileID: 11400000, guid: cddb7783e23731e4d90830ba80ee6c65, type: 2}
  - m_RefCount: 1
    m_Data: {fileID: 11400000, guid: a980ff52d73f468408cae5b33ee17b28, type: 2}
  - m_RefCount: 1
    m_Data: {fileID: 11400000, guid: 729eb0391a21fc240a5f41130ba736fa, type: 2}
  - m_RefCount: 1
    m_Data: {fileID: 11400000, guid: 09173afd8530b9846b8850f6dd0f2554, type: 2}
  - m_RefCount: 1
    m_Data: {fileID: 11400000, guid: b534d72c34d073843aa26494c0cab953, type: 2}
  - m_RefCount: 1
    m_Data: {fileID: 11400000, guid: 958ccc1c6ecca5c4da06d7c98ecd4a1f, type: 2}
  - m_RefCount: 1
    m_Data: {fileID: 11400000, guid: 2b0fa5ed48b805e4bb8e6a8ae0194f3e, type: 2}
  - m_RefCount: 1
    m_Data: {fileID: 11400000, guid: a3191fd658daa1541988735a5625a073, type: 2}
  - m_RefCount: 1
    m_Data: {fileID: 11400000, guid: a41a817c0eb98a041badc0df1728f4d2, type: 2}
  - m_RefCount: 1
    m_Data: {fileID: 11400000, guid: b37a122222411424eb07b1ee10d922ef, type: 2}
  - m_RefCount: 1
    m_Data: {fileID: 11400000, guid: 953e96aaf198d0f469b002a5af045562, type: 2}
  - m_RefCount: 1
    m_Data: {fileID: 11400000, guid: af11cd854f0372f4383f01cb7414437e, type: 2}
  - m_RefCount: 1
    m_Data: {fileID: 11400000, guid: 3a044ea00d3c8744e94fd1d021e2fc72, type: 2}
  - m_RefCount: 1
    m_Data: {fileID: 11400000, guid: 3f3fb601b90f08d459fb865bc9a2878d, type: 2}
  - m_RefCount: 1
    m_Data: {fileID: 11400000, guid: afdc20ddc4194824aab4627fb8b3e1be, type: 2}
  - m_RefCount: 1
    m_Data: {fileID: 11400000, guid: 05f7c4fa21a4e124394ed44c7a15b853, type: 2}
  - m_RefCount: 1
    m_Data: {fileID: 11400000, guid: 3bd5caa0df230184785b296d73f8686a, type: 2}
  - m_RefCount: 1
    m_Data: {fileID: 11400000, guid: 9b786205c695a9e44882c9b2c0ce7ab4, type: 2}
  - m_RefCount: 1
    m_Data: {fileID: 11400000, guid: efbe53046c1e30948a4acc1cedbbc532, type: 2}
  - m_RefCount: 1
    m_Data: {fileID: 11400000, guid: 22bc951d0599248469ed011e2e630d0e, type: 2}
  - m_RefCount: 1
    m_Data: {fileID: 11400000, guid: f1d2bd11e290013478c55f38a9f10342, type: 2}
  - m_RefCount: 1
    m_Data: {fileID: 11400000, guid: 4b3f664e091ca2545aca910c2d256c6a, type: 2}
  - m_RefCount: 1
    m_Data: {fileID: 11400000, guid: c7e1f841e337b634ebc3536a51a61d0a, type: 2}
  - m_RefCount: 1
    m_Data: {fileID: 11400000, guid: 8605c7bc0a904d74099af2c65ca67e4c, type: 2}
  - m_RefCount: 1
    m_Data: {fileID: 11400000, guid: 8e835797cb7983246aba872525e73232, type: 2}
  - m_RefCount: 1
    m_Data: {fileID: 11400000, guid: e1eead60f82e1a8478dd315748ca3c7b, type: 2}
  - m_RefCount: 1
    m_Data: {fileID: 11400000, guid: 40cce0abb327ab844afe1ee3ab418557, type: 2}
  - m_RefCount: 1
    m_Data: {fileID: 11400000, guid: 6f2bb7f4d4379bc48a1db4301151341e, type: 2}
  - m_RefCount: 1
    m_Data: {fileID: 11400000, guid: cedfd9c898534ae4693158b610e261f6, type: 2}
  - m_RefCount: 1
    m_Data: {fileID: 11400000, guid: 831355d525ac1d54999338efe9d2386d, type: 2}
  - m_RefCount: 1
    m_Data: {fileID: 11400000, guid: 1d3b14133b4c5334f99de34f97bc1c3e, type: 2}
  - m_RefCount: 1
    m_Data: {fileID: 11400000, guid: 3b3052e969491cf4caa960daa9cf51ac, type: 2}
  - m_RefCount: 1
    m_Data: {fileID: 11400000, guid: 2c8d67b1458c0f943b0984a1ce02e57d, type: 2}
  - m_RefCount: 1
    m_Data: {fileID: 11400000, guid: fb7af599680628a468147d5a4c1665f7, type: 2}
  - m_RefCount: 1
    m_Data: {fileID: 11400000, guid: eead6fbd6a8425445b1f108b3160fc2f, type: 2}
  - m_RefCount: 1
    m_Data: {fileID: 11400000, guid: 43bf381fb32ab704992a5edffd34f439, type: 2}
  - m_RefCount: 1
    m_Data: {fileID: 11400000, guid: ae89a449fab26ee45b5d4dd715b0f2cc, type: 2}
  - m_RefCount: 1
    m_Data: {fileID: 11400000, guid: 2f81a435ccb08ac40a4440d519b78ff8, type: 2}
  - m_RefCount: 1
    m_Data: {fileID: 11400000, guid: 42ce5f2a9db915d49ad0cb146f902415, type: 2}
  - m_RefCount: 1
    m_Data: {fileID: 11400000, guid: 196de67f4f0772748a7a8d04884fc52e, type: 2}
  - m_RefCount: 1
    m_Data: {fileID: 11400000, guid: fc9574e991e8ffb44b34088503f2e52e, type: 2}
  - m_RefCount: 1
    m_Data: {fileID: 11400000, guid: f9fd7673d9e223c4a95edb3e70c2393b, type: 2}
  - m_RefCount: 1
    m_Data: {fileID: 11400000, guid: 365b09792e6d97944b73d7273f4ddac4, type: 2}
  - m_RefCount: 1
    m_Data: {fileID: 11400000, guid: 8515f6594353cd94bbd505be65e1816d, type: 2}
  - m_RefCount: 1
    m_Data: {fileID: 11400000, guid: a7a2d5148bd88ba458216e19b621e2d6, type: 2}
  m_TileSpriteArray:
  - m_RefCount: 1
    m_Data: {fileID: 21300000, guid: 148fcfd28c7be6047a931ec078f19206, type: 3}
  - m_RefCount: 1
    m_Data: {fileID: 21300000, guid: 83d626bcd3b66f744b555cb0b56cf080, type: 3}
  - m_RefCount: 1
    m_Data: {fileID: 21300000, guid: d1a899debe684464fa8933adf774bc82, type: 3}
  - m_RefCount: 1
    m_Data: {fileID: 21300000, guid: 0393dcc0390967f42a2e0a19ffbe77b4, type: 3}
  - m_RefCount: 1
    m_Data: {fileID: 21300000, guid: 2d57f91f4f65174469cc85117634dfea, type: 3}
  - m_RefCount: 1
    m_Data: {fileID: 21300000, guid: 0a8becb2af872e441834daed344b733d, type: 3}
  - m_RefCount: 1
    m_Data: {fileID: 21300000, guid: 248290935b3286540a7886f7bca58e7f, type: 3}
  - m_RefCount: 1
    m_Data: {fileID: 21300000, guid: 44c1bf1d08b754843b5f02b7cea91d34, type: 3}
  - m_RefCount: 1
    m_Data: {fileID: 21300000, guid: 2278e1a612c6737419a591dee056c1cb, type: 3}
  - m_RefCount: 1
    m_Data: {fileID: 21300000, guid: a69b568f8db93b34b9aeb8db106638e0, type: 3}
  - m_RefCount: 1
    m_Data: {fileID: 21300000, guid: 0203957f8cc54ad4381cf68976409f26, type: 3}
  - m_RefCount: 1
    m_Data: {fileID: 21300000, guid: ea93b9c765eea784b86070812f672f5d, type: 3}
  - m_RefCount: 1
    m_Data: {fileID: 21300000, guid: 28a18179801b7214f8a2a7da2249ebbd, type: 3}
  - m_RefCount: 1
    m_Data: {fileID: 21300000, guid: b4fe06eee48b2fe4081476770ab30cdc, type: 3}
  - m_RefCount: 1
    m_Data: {fileID: 21300000, guid: 618dfd28df72b8b4aa531d99d8c3fcd8, type: 3}
  - m_RefCount: 1
    m_Data: {fileID: 21300000, guid: 4eca0d6b09cb318469f925648e8c4e13, type: 3}
  - m_RefCount: 1
    m_Data: {fileID: 21300000, guid: a217c806a28416e4d8735a5101b6dc9a, type: 3}
  - m_RefCount: 1
    m_Data: {fileID: 21300000, guid: cf9fefa315f4bbe47bd3ae47d550e177, type: 3}
  - m_RefCount: 1
    m_Data: {fileID: 21300000, guid: 367580616c09d5848a3e7c8364e8c4f9, type: 3}
  - m_RefCount: 1
    m_Data: {fileID: 21300000, guid: 46ce3629b5843bc42ae67240084ff503, type: 3}
  - m_RefCount: 1
    m_Data: {fileID: 21300000, guid: 5aec1c05eeffe2b4395eba49fde6d48c, type: 3}
  - m_RefCount: 1
    m_Data: {fileID: 21300000, guid: 7e916dfde73504c4b87943f6df73956c, type: 3}
  - m_RefCount: 1
    m_Data: {fileID: 21300000, guid: c7275fdc32362104c9d32a062ccab7ae, type: 3}
  - m_RefCount: 1
    m_Data: {fileID: 21300000, guid: b6358fa16264ece418ace25ddb436c79, type: 3}
  - m_RefCount: 1
    m_Data: {fileID: 21300000, guid: 0bf0639e9eec9c646aecf6a0bcc85761, type: 3}
  - m_RefCount: 1
    m_Data: {fileID: 21300000, guid: ad768108af97e1141bb3791825511005, type: 3}
  - m_RefCount: 1
    m_Data: {fileID: 21300000, guid: 6c19c2a9a5a1ac943a3f3db39be04c07, type: 3}
  - m_RefCount: 1
    m_Data: {fileID: 21300000, guid: 3b06ea6f584dabf4b8a4819bd2021552, type: 3}
  - m_RefCount: 1
    m_Data: {fileID: 21300000, guid: c146bffe543c74343b2d669a25295961, type: 3}
  - m_RefCount: 1
    m_Data: {fileID: 21300000, guid: ec0b567f68d611848a6cf8791a517fb1, type: 3}
  - m_RefCount: 1
    m_Data: {fileID: 21300000, guid: 1aa9dd3737657ca469c66197f2f33859, type: 3}
  - m_RefCount: 1
    m_Data: {fileID: 21300000, guid: b8a767eda480de24c88c64b117ca3b59, type: 3}
  - m_RefCount: 1
    m_Data: {fileID: 21300000, guid: 0b4304a189a69384fbc43453b1219ce8, type: 3}
  - m_RefCount: 1
    m_Data: {fileID: 21300000, guid: 579e035bf20388a4385369702cc09e79, type: 3}
  - m_RefCount: 1
    m_Data: {fileID: 21300000, guid: 69e26a728e3a5bd419b8925d25b95af0, type: 3}
  - m_RefCount: 1
    m_Data: {fileID: 21300000, guid: f141067538c54324c9ee1e9bf3fe143b, type: 3}
  - m_RefCount: 1
    m_Data: {fileID: 21300000, guid: 309b1a79d4f2e5145acea0c2a372c3b4, type: 3}
  - m_RefCount: 1
    m_Data: {fileID: 21300000, guid: f1ff2849087170a4ba5ff6a706ff7336, type: 3}
  - m_RefCount: 1
    m_Data: {fileID: 21300000, guid: f1b48d7e035c546459718bc929918ca2, type: 3}
  - m_RefCount: 1
    m_Data: {fileID: 21300000, guid: b2c6bc2455dac7e429eb0af2b1ff0bec, type: 3}
  - m_RefCount: 1
    m_Data: {fileID: 21300000, guid: e1b8ed79301cb6b4a8ebb2e9614addab, type: 3}
  - m_RefCount: 1
    m_Data: {fileID: 21300000, guid: 5501c095b5110294c8cdf5de55b34925, type: 3}
  - m_RefCount: 1
    m_Data: {fileID: 21300000, guid: 9f7161b7e250bc64e873a1633752cd42, type: 3}
  - m_RefCount: 1
    m_Data: {fileID: 21300000, guid: 411da4e817669fb48bdd2180c969736f, type: 3}
  - m_RefCount: 1
    m_Data: {fileID: 21300000, guid: 02ebbecfd6634284e99b92d0438fcab7, type: 3}
  - m_RefCount: 1
    m_Data: {fileID: 21300000, guid: 031116fc9da98fd408bf980a0cc88ea9, type: 3}
  - m_RefCount: 1
    m_Data: {fileID: 21300000, guid: 3be137c1758a2c24396f205025270f01, type: 3}
  - m_RefCount: 1
    m_Data: {fileID: 21300000, guid: 713eae318738dbb409031ad58b50165e, type: 3}
  - m_RefCount: 1
    m_Data: {fileID: 21300000, guid: f870970d4b33dcc44b628f41f2f7ecb5, type: 3}
  - m_RefCount: 1
    m_Data: {fileID: 21300000, guid: 7147d80262d61104493d4bf9398c339d, type: 3}
  - m_RefCount: 1
    m_Data: {fileID: 21300000, guid: b35d2e62992e06149930235d3e334af6, type: 3}
  - m_RefCount: 1
    m_Data: {fileID: 21300000, guid: 4d61ff7aeeca81447ac10de4f40a0934, type: 3}
  - m_RefCount: 1
    m_Data: {fileID: 21300000, guid: 72d0dd6cad6749145bc43894e1c96a93, type: 3}
  - m_RefCount: 1
    m_Data: {fileID: 21300000, guid: 9ac569ee30633d142b6783232a851f27, type: 3}
  - m_RefCount: 1
    m_Data: {fileID: 21300000, guid: a1c0a0f2723623740aa1f525bd067207, type: 3}
  - m_RefCount: 1
    m_Data: {fileID: 21300000, guid: 63119763249e48c43810e5d2c37fde9a, type: 3}
  - m_RefCount: 1
    m_Data: {fileID: 21300000, guid: f7eda668ac77092438799bec3443f817, type: 3}
  - m_RefCount: 1
    m_Data: {fileID: 21300000, guid: 60dd0303e3e279c4eb55ec36e2270557, type: 3}
  - m_RefCount: 1
    m_Data: {fileID: 21300000, guid: e00307a1da01de141af393bfedab27b8, type: 3}
  - m_RefCount: 1
    m_Data: {fileID: 21300000, guid: d504b9de9ae8b6e44b05dc61452d86b9, type: 3}
  - m_RefCount: 1
    m_Data: {fileID: 21300000, guid: 0799e3813044dba4d8f06109d29860b0, type: 3}
  - m_RefCount: 1
    m_Data: {fileID: 21300000, guid: 264baca9386be204282fd04d8ee0272e, type: 3}
  - m_RefCount: 1
    m_Data: {fileID: 21300000, guid: 5ab57ecc46294484381089e48423e147, type: 3}
  - m_RefCount: 1
    m_Data: {fileID: 21300000, guid: e4d9dacd25c31fb46b0e28900b72895b, type: 3}
  - m_RefCount: 1
    m_Data: {fileID: 21300000, guid: bcf855e2d1578d645887b00e5150ee12, type: 3}
  - m_RefCount: 1
    m_Data: {fileID: 21300000, guid: 2d6cb2a4f9d04194a9a90573b5180db6, type: 3}
  - m_RefCount: 1
    m_Data: {fileID: 21300000, guid: 796cb51a2876c884188b3423c485f4f9, type: 3}
  - m_RefCount: 1
    m_Data: {fileID: 21300000, guid: 5f0b1042298f0064a833f6cc9c1b35d7, type: 3}
  - m_RefCount: 1
    m_Data: {fileID: 21300000, guid: 15012aeba46b7f647b4a2738f07884bf, type: 3}
  - m_RefCount: 1
    m_Data: {fileID: 21300000, guid: 3bf274443772c0c48a58202f5068bf15, type: 3}
  - m_RefCount: 1
    m_Data: {fileID: 21300000, guid: c9793da599f4b6a48949686da98912ee, type: 3}
  - m_RefCount: 1
    m_Data: {fileID: 21300000, guid: 73cd9127c427dab44999931e1fc4c227, type: 3}
  - m_RefCount: 1
    m_Data: {fileID: 21300000, guid: 7c6091dfcda82c641af670a84363d3b2, type: 3}
  - m_RefCount: 1
    m_Data: {fileID: 21300000, guid: 50243c76dd2e6ac4c99c0e69e5b27991, type: 3}
  - m_RefCount: 1
    m_Data: {fileID: 21300000, guid: 119b62ad9ce5cc94a93a255494f9cc8c, type: 3}
  - m_RefCount: 1
    m_Data: {fileID: 21300000, guid: 77d86b60171c2f24789d8cdd08a2a481, type: 3}
  - m_RefCount: 1
    m_Data: {fileID: 21300000, guid: 7e3a05902b08da04b9627d4f7194e044, type: 3}
  m_TileMatrixArray:
  - m_RefCount: 77
    m_Data:
      e00: 1
      e01: 0
      e02: 0
      e03: 0
      e10: 0
      e11: 1
      e12: 0
      e13: 0
      e20: 0
      e21: 0
      e22: 1
      e23: 0
      e30: 0
      e31: 0
      e32: 0
      e33: 1
  m_TileColorArray:
  - m_RefCount: 77
    m_Data: {r: 1, g: 1, b: 1, a: 1}
  m_TileObjectToInstantiateArray: []
  m_AnimationFrameRate: 1
  m_Color: {r: 1, g: 1, b: 1, a: 1}
  m_Origin: {x: -2, y: -9, z: 0}
  m_Size: {x: 9, y: 9, z: 1}
  m_TileAnchor: {x: 0.5, y: 0.5, z: 0}
  m_TileOrientation: 0
  m_TileOrientationMatrix:
    e00: 1
    e01: 0
    e02: 0
    e03: 0
    e10: 0
    e11: 1
    e12: 0
    e13: 0
    e20: 0
    e21: 0
    e22: 1
    e23: 0
    e30: 0
    e31: 0
    e32: 0
    e33: 1
--- !u!483693784 &9055565341920544472
TilemapRenderer:
  m_ObjectHideFlags: 0
  m_CorrespondingSourceObject: {fileID: 0}
  m_PrefabInstance: {fileID: 0}
  m_PrefabAsset: {fileID: 0}
  m_GameObject: {fileID: 7355805196137837609}
  m_Enabled: 1
  m_CastShadows: 0
  m_ReceiveShadows: 0
  m_DynamicOccludee: 0
  m_MotionVectors: 1
  m_LightProbeUsage: 0
  m_ReflectionProbeUsage: 0
  m_RayTracingMode: 0
  m_RayTraceProcedural: 0
  m_RenderingLayerMask: 1
  m_RendererPriority: 0
  m_Materials:
  - {fileID: 2100000, guid: a97c105638bdf8b4a8650670310a4cd3, type: 2}
  m_StaticBatchInfo:
    firstSubMesh: 0
    subMeshCount: 0
  m_StaticBatchRoot: {fileID: 0}
  m_ProbeAnchor: {fileID: 0}
  m_LightProbeVolumeOverride: {fileID: 0}
  m_ScaleInLightmap: 1
  m_ReceiveGI: 1
  m_PreserveUVs: 0
  m_IgnoreNormalsForChartDetection: 0
  m_ImportantGI: 0
  m_StitchLightmapSeams: 1
  m_SelectedEditorRenderState: 0
  m_MinimumChartSize: 4
  m_AutoUVMaxDistance: 0.5
  m_AutoUVMaxAngle: 89
  m_LightmapParameters: {fileID: 0}
  m_SortingLayerID: 0
  m_SortingLayer: 0
  m_SortingOrder: 0
  m_ChunkSize: {x: 32, y: 32, z: 32}
  m_ChunkCullingBounds: {x: 0, y: 0, z: 0}
  m_MaxChunkCount: 16
  m_MaxFrameAge: 16
  m_SortOrder: 0
  m_Mode: 0
  m_DetectChunkCullingBounds: 0
  m_MaskInteraction: 0
--- !u!114 &3739119827447560724
MonoBehaviour:
  m_ObjectHideFlags: 0
  m_CorrespondingSourceObject: {fileID: 0}
  m_PrefabInstance: {fileID: 0}
  m_PrefabAsset: {fileID: 0}
  m_GameObject: {fileID: 0}
  m_Enabled: 1
  m_EditorHideFlags: 0
  m_Script: {fileID: 12395, guid: 0000000000000000e000000000000000, type: 0}
  m_Name: Palette Settings
  m_EditorClassIdentifier: 
  cellSizing: 0
  m_TransparencySortMode: 0
  m_TransparencySortAxis: {x: 0, y: 0, z: 1}
